…
``` r
litters_df = janitor::clean_names(litters_df)
```

\##select

Choose some columns and not others

``` r
select(litters_df, group, litter_number)
```

    ## # A tibble: 49 × 2
    ##    group litter_number  
    ##    <chr> <chr>          
    ##  1 Con7  #85            
    ##  2 Con7  #1/2/95/2      
    ##  3 Con7  #5/5/3/83/3-3  
    ##  4 Con7  #5/4/2/95/2    
    ##  5 Con7  #4/2/95/3-3    
    ##  6 Con7  #2/2/95/3-2    
    ##  7 Con7  #1/5/3/83/3-3/2
    ##  8 Con8  #3/83/3-3      
    ##  9 Con8  #2/95/3        
    ## 10 Con8  #3/5/2/2/95    
    ## # ℹ 39 more rows

Choose a range of columns use colon

``` r
select(litters_df, group, gd0_weight:pups_born_alive)
```

    ## # A tibble: 49 × 5
    ##    group gd0_weight gd18_weight gd_of_birth pups_born_alive
    ##    <chr>      <dbl>       <dbl>       <dbl>           <dbl>
    ##  1 Con7        19.7        34.7          20               3
    ##  2 Con7        27          42            19               8
    ##  3 Con7        26          41.4          19               6
    ##  4 Con7        28.5        44.1          19               5
    ##  5 Con7        NA          NA            20               6
    ##  6 Con7        NA          NA            20               6
    ##  7 Con7        NA          NA            20               9
    ##  8 Con8        NA          NA            20               9
    ##  9 Con8        NA          NA            20               8
    ## 10 Con8        28.5        NA            20               8
    ## # ℹ 39 more rows

you can also sepcify somemthing you want to remove

``` r
select(litters_df, -litter_number)
```

    ## # A tibble: 49 × 7
    ##    group gd0_weight gd18_weight gd_of_birth pups_born_alive pups_dead_birth
    ##    <chr>      <dbl>       <dbl>       <dbl>           <dbl>           <dbl>
    ##  1 Con7        19.7        34.7          20               3               4
    ##  2 Con7        27          42            19               8               0
    ##  3 Con7        26          41.4          19               6               0
    ##  4 Con7        28.5        44.1          19               5               1
    ##  5 Con7        NA          NA            20               6               0
    ##  6 Con7        NA          NA            20               6               0
    ##  7 Con7        NA          NA            20               9               0
    ##  8 Con8        NA          NA            20               9               1
    ##  9 Con8        NA          NA            20               8               0
    ## 10 Con8        28.5        NA            20               8               0
    ## # ℹ 39 more rows
    ## # ℹ 1 more variable: pups_survive <dbl>

You can also rename specific columns as part of the procedure when
selecting them

``` r
select(litters_df, GROUP = group, LITTERNUMBER = litter_number)
```

    ## # A tibble: 49 × 2
    ##    GROUP LITTERNUMBER   
    ##    <chr> <chr>          
    ##  1 Con7  #85            
    ##  2 Con7  #1/2/95/2      
    ##  3 Con7  #5/5/3/83/3-3  
    ##  4 Con7  #5/4/2/95/2    
    ##  5 Con7  #4/2/95/3-3    
    ##  6 Con7  #2/2/95/3-2    
    ##  7 Con7  #1/5/3/83/3-3/2
    ##  8 Con8  #3/83/3-3      
    ##  9 Con8  #2/95/3        
    ## 10 Con8  #3/5/2/2/95    
    ## # ℹ 39 more rows
